D:\BRAINING_HUB\Junior\bh12\Projects\ZH_Car\src\main\java\hu\braininghub\zh_car\servlet\addCarServlet.java
D:\BRAINING_HUB\Junior\bh12\Projects\ZH_Car\src\main\java\hu\braininghub\zh_car\servlet\CarServlet.java
D:\BRAINING_HUB\Junior\bh12\Projects\ZH_Car\src\main\java\hu\braininghub\zh_car\entity\CarEntity.java
D:\BRAINING_HUB\Junior\bh12\Projects\ZH_Car\src\main\java\hu\braininghub\zh_car\mapper\CarMapper.java
D:\BRAINING_HUB\Junior\bh12\Projects\ZH_Car\src\main\java\hu\braininghub\zh_car\dao\CarDAO.java
D:\BRAINING_HUB\Junior\bh12\Projects\ZH_Car\src\main\java\hu\braininghub\zh_car\dto\CarDTO.java
D:\BRAINING_HUB\Junior\bh12\Projects\ZH_Car\src\main\java\hu\braininghub\zh_car\service\CarService.java
